﻿Username/お名前:,admin
Address/住所:,Phan Thanh
e-mail:,abcd@yopmail.com
日付,種別,確認コード,開始日,夜	,ゲスト,リスティング,物件種別,Address,詳細,紹介文,通貨,額,送金済,ホスト不在,清掃料金
12/11/2015,受取金,,,,,,,,Account *****1519に送金,,JPY,,31495,,,1
12/11/2015,予約,C5FAHT,12/10/2015,2,Nick Lin,Namba station 5min-walk / Free wifi,アパート,1463 Meadowbrook Rd.,,,USD,200,,980,4534,2
12/10/2015,受取金,,,,,,,,Account *****1519に送金,,JPY,,46974,,,3
12/10/2015,予約,5ZZRC4,12/9/2015,3,Benny Tong,Namba station 5min-walk / Free wifi,アパート,1463 Meadowbrook Rd.,,,JPY,46974,,1480,5055,4
12/7/2015,受取金,,,,,,,,Account *****1519に送金,,JPY,,30512,,,5
12/7/2015,予約,F4JEQK,12/6/2015,2,文 迪,Namba station 5min-walk / Free wifi,アパート,1463 Meadowbrook Rd.,,,USD,100.1,,984,4552,6
12/4/2015,受取金,,,,,,,,Account *****1519に送金,,JPY,,37745,,,7
12/4/2015,予約,ZQHTWR,12/3/2015,3,Jessica Luo,Namba station 5min-walk / Free wifi,アパート,1463 Meadowbrook Rd.,,,JPY,37745,,1225,4534,8
12/1/2015,受取金,,,,,,,,Account *****1519に送金,,JPY,,165019,,,9
11/29/2015,予約,QN54YZ,11/28/2015,3,Beiqin Chen,Namba station 5min-walk / Free wifi,アパート,1463 Meadowbrook Rd.,,,JPY,36401,,1111,0,10
11/27/2015,予約,WYJF8D,11/26/2015,3,香蛋包饭 芝,Namba station 5min-walk / Free wifi,アパート,1463 Meadowbrook Rd.,,,JPY,38305,,1232,3941,11
11/26/2015,予約,WW5SBF,11/25/2015,3,황채빈 황,5min walk to Shinsaibashi/Free wifi,マンション,Dai Lan. Duyen Ha. Thanh Tri,,,JPY,43657,,1349,4537,12
11/23/2015,予約,W4K52H,11/22/2015,2,Dev Gtz,5min walk to Shinsaibashi/Free wifi,マンション,Dai Lan. Duyen Ha. Thanh Tri,,,JPY,25309,,737,5037,13
11/22/2015,予約,4NT9AR,11/21/2015,2,Christian Gill,5min walk to Shinsaibashi/Free wifi,マンション,Dai Lan. Duyen Ha. Thanh Tri,,,JPY,21347,,617,4442,14