﻿日付,種別,確認コード,開始日,夜,ゲスト,リスティング,物件種別,物件の住所,詳細,紹介文,通貨,額,送金済,ホスト不在,清掃料金
2015/12/04,予約,ZQHTWR,2015/12/03,3,Jessica Luo,66min walk to Shinsaibashi/Free wifi,賃貸物件,,,,JPY,37745,,1225,4534
2015/11/29,予約,QN54YZ,2015/11/28,3,Beiqin Chen,66min walk to Shinsaibashi/Free wifi,賃貸物件,,,,JPY,36401,,1111,0
2015/11/26,予約,WW5SBF,2015/11/25,3,황채빈 황,66min walk to Shinsaibashi/Free wifi,賃貸物件,,,,JPY,43657,,1349,4537
2015/11/22,予約,4NT9AR,2015/11/21,2,Christian Gill,66min walk to Shinsaibashi/Free wifi,賃貸物件,,,,JPY,21347,,617,4442
