日付,種別,確認コード,開始日,夜,ゲスト,リスティング,詳細,紹介文,通貨,額,送金済,ホスト不在,清掃料金
2015/12/11,受取金,,,,,,Account *****1519に送金,,JPY,,31495,,
2015/12/11,予約,C5FAHT,2015/12/10,2,Nick Lin,Namba station 5min-walk / Free wifi,,,JPY,31495,,980,4534
2015/12/10,受取金,,,,,,Account *****1519に送金,,JPY,,46974,,
2015/12/10,予約,5ZZRC4,2015/12/09,3,Benny Tong,6-mins walk to Namba / Free wifi!!,,,JPY,46974,,1480,5055
2015/12/07,受取金,,,,,,Account *****1519に送金,,JPY,,30512,,
2015/12/07,予約,F4JEQK,2015/12/06,2,文 迪,Namba station 5min-walk / Free wifi,,,JPY,30512,,984,4552
2015/12/04,受取金,,,,,,Account *****1519に送金,,JPY,,37745,,
2015/12/04,予約,ZQHTWR,2015/12/03,3,Jessica Luo,5min walk to Shinsaibashi/Free wifi,,,JPY,37745,,1225,4534
2015/12/01,受取金,,,,,,Account *****1519に送金,,JPY,,165019,,
2015/11/29,予約,QN54YZ,2015/11/28,3,Beiqin Chen,5min walk to Shinsaibashi/Free wifi,,,JPY,36401,,1111,0
2015/11/27,予約,WYJF8D,2015/11/26,3,香蛋包饭 芝,Namba station 10-min walk/FREE wifi,,,JPY,38305,,1232,3941
2015/11/26,予約,WW5SBF,2015/11/25,3,황채빈 황,5min walk to Shinsaibashi/Free wifi,,,JPY,43657,,1349,4537
2015/11/23,予約,W4K52H,2015/11/22,2,Dev Gtz,Namba&Shinsaibashi 10mins/Free wifi,,,JPY,25309,,737,5037
2015/11/22,予約,4NT9AR,2015/11/21,2,Christian Gill,5min walk to Shinsaibashi/Free wifi,,,JPY,21347,,617,4442
