日付,種別,確認コード,開始日,夜,ゲスト,リスティング,詳細,紹介文,通貨,額,送金済,ホスト不在,清掃料金
12/11/2015,受取金,,,,,,Account *****1519に送金,,JPY,,31495,,
12/11/2015,予約,C5FAHT,12/10/2015,2,Nick Lin,Namba station 5min-walk / Free wifi,,,USD,200,,980,4534
12/10/2015,受取金,,,,,,Account *****1519に送金,,JPY,,46974,,
12/10/2015,予約,5ZZRC4,12/9/2015,3,Benny Tong,6-mins walk to Namba / Free wifi!!,,,JPY,46974,,1480,5055
12/7/2015,受取金,,,,,,Account *****1519に送金,,JPY,,30512,,
12/7/2015,予約,F4JEQK,12/6/2015,2,文 迪,Namba station 5min-walk / Free wifi,,,USD,100.1,,984,4552
12/4/2015,受取金,,,,,,Account *****1519に送金,,JPY,,37745,,
12/4/2015,予約,ZQHTWR,12/3/2015,3,Jessica Luo,5min walk to Shinsaibashi/Free wifi,,,JPY,37745,,1225,4534
12/1/2015,受取金,,,,,,Account *****1519に送金,,JPY,,165019,,
11/29/2015,予約,QN54YZ,11/28/2015,3,Beiqin Chen,5min walk to Shinsaibashi/Free wifi,,,JPY,36401,,1111,0
11/27/2015,予約,WYJF8D,11/26/2015,3,香蛋包饭 芝,Namba station 10-min walk/FREE wifi,,,JPY,38305,,1232,3941
11/26/2015,予約,WW5SBF,11/25/2015,3,황채빈 황,5min walk to Shinsaibashi/Free wifi,,,JPY,43657,,1349,4537
11/23/2015,予約,W4K52H,11/22/2015,2,Dev Gtz,Namba&Shinsaibashi 10mins/Free wifi,,,JPY,25309,,737,5037
11/22/2015,予約,4NT9AR,11/21/2015,2,Christian Gill,5min walk to Shinsaibashi/Free wifi,,,JPY,21347,,617,4442
